﻿/osver:6.2
/appcontainer
"/runtime:mrt100_app"
/eh:clr
/pdb
"/nativeLink:C:\Program Files (x86)\Microsoft SDKs\UWPNuGetPackages\runtime.win10-x64.microsoft.net.native.compiler\2.2.8-rel-28605-00\tools\x64\ilc\lib\Native\vmath.lib"
/customImports
/methodBodyFolding
"C:\Users\Pedro\Desktop\UNIVERSIDAD 2020-2021\TFG\tfg-pedro-navarro\TFGPedroUWPApp\TFGPedroUWPApp\obj\x64\Release\ilc\intermediate\MDIL\TFGPedroUWPApp.mdilexe"
"/i:C:\Users\Pedro\Desktop\UNIVERSIDAD 2020-2021\TFG\tfg-pedro-navarro\TFGPedroUWPApp\TFGPedroUWPApp\obj\x64\Release\ilc\intermediate\MDIL"
"/out:C:\Users\Pedro\Desktop\UNIVERSIDAD 2020-2021\TFG\tfg-pedro-navarro\TFGPedroUWPApp\TFGPedroUWPApp\obj\x64\Release\ilc\intermediate\Native\TFGPedroUWPApp.exe"
"/pdbAltPath:C:\Users\Pedro\Desktop\UNIVERSIDAD 2020-2021\TFG\tfg-pedro-navarro\TFGPedroUWPApp\TFGPedroUWPApp\bin\x64\Release\ilc"
"/res:C:\Users\Pedro\Desktop\UNIVERSIDAD 2020-2021\TFG\tfg-pedro-navarro\TFGPedroUWPApp\TFGPedroUWPApp\obj\x64\Release\ilc\intermediate\Native.res"
"/i:C:\Program Files (x86)\Microsoft SDKs\UWPNuGetPackages\runtime.win10-x64.microsoft.net.native.sharedlibrary\2.2.7-rel-28605-00\tools\SharedLibrary\ret\MDIL"
/shimexe
"/classlib:SharedLibrary"
"/sourcelink:C:\Users\Pedro\Desktop\UNIVERSIDAD 2020-2021\TFG\tfg-pedro-navarro\TFGPedroUWPApp\TFGPedroUWPApp\obj\x64\Release\ilc\intermediate\ILTransformed\Xamarin.Forms.Core.srclink"
"/sourcelink:C:\Users\Pedro\Desktop\UNIVERSIDAD 2020-2021\TFG\tfg-pedro-navarro\TFGPedroUWPApp\TFGPedroUWPApp\obj\x64\Release\ilc\intermediate\ILTransformed\Xamarin.Forms.Platform.UAP.srclink"
"/sourcelink:C:\Users\Pedro\Desktop\UNIVERSIDAD 2020-2021\TFG\tfg-pedro-navarro\TFGPedroUWPApp\TFGPedroUWPApp\obj\x64\Release\ilc\intermediate\ILTransformed\Xamarin.Forms.Xaml.srclink"
