﻿/ref:"C:\Users\Pedro\Desktop\UNIVERSIDAD 2020-2021\TFG\tfg-pedro-navarro\TFGPedroUWPApp\TFGPedroUWPApp\obj\x64\Release\ilc\intermediate\PreMergeILTransformed"
/ref:"C:\Program Files (x86)\Microsoft SDKs\UWPNuGetPackages\runtime.win10-x64.microsoft.net.native.sharedlibrary\2.2.7-rel-28605-00\tools\SharedLibrary\ret\AnalysisILToc"
/ref:"C:\Users\Pedro\Desktop\UNIVERSIDAD 2020-2021\TFG\tfg-pedro-navarro\TFGPedroUWPApp\TFGPedroUWPApp\obj\x64\Release\ilc\intermediate\PreMergeILTransformed"
/ref:"C:\Users\Pedro\Desktop\UNIVERSIDAD 2020-2021\TFG\tfg-pedro-navarro\TFGPedroUWPApp\TFGPedroUWPApp\obj\x64\Release\ilc\in\\"
/ref:"C:\Program Files (x86)\Microsoft SDKs\UWPNuGetPackages\runtime.win10-x64.microsoft.net.native.compiler\2.2.8-rel-28605-00\tools\x64\ilc\lib\Private\\"
/ref:"C:\Users\Pedro\Desktop\UNIVERSIDAD 2020-2021\TFG\tfg-pedro-navarro\TFGPedroUWPApp\TFGPedroUWPApp\obj\x64\Release\ilc\in"
/ref:"C:\Users\Pedro\Desktop\UNIVERSIDAD 2020-2021\TFG\tfg-pedro-navarro\TFGPedroUWPApp\TFGPedroUWPApp\obj\x64\Release\ilc\in\WinMetadata"
/ca:System.Private.CoreLib
/cscpath:"C:\Program Files (x86)\Microsoft SDKs\UWPNuGetPackages\microsoft.net.native.compiler\2.2.8-rel-28605-00\tools\csc"
/out:"C:\Users\Pedro\Desktop\UNIVERSIDAD 2020-2021\TFG\tfg-pedro-navarro\TFGPedroUWPApp\TFGPedroUWPApp\obj\x64\Release\ilc\intermediate\SgGenerated\\"
/int:"C:\Users\Pedro\Desktop\UNIVERSIDAD 2020-2021\TFG\tfg-pedro-navarro\TFGPedroUWPApp\TFGPedroUWPApp\obj\x64\Release\ilc\intermediate\TFGPedroUWPApp.Sg"
"@C:\Users\Pedro\Desktop\UNIVERSIDAD 2020-2021\TFG\tfg-pedro-navarro\TFGPedroUWPApp\TFGPedroUWPApp\obj\x64\Release\ilc\intermediate\TFGPedroUWPApp.Sg\ComputedSerializationInput.txt"
